…
## Why visualisation?

We have spent a lot of time learning about manipulating and exploring data. What sort of information
can we learn like that?

Let's meet some datasets:


~~~
# A tibble: 1,846 x 3
   dataset     x     y
     <dbl> <dbl> <dbl>
 1       4  55.4  97.2
 2       4  51.5  96.0
 3       4  46.2  94.5
 4       4  42.8  91.4
 5       4  40.8  88.3
 6       4  38.7  84.9
 7       4  35.6  79.9
 8       4  33.1  77.6
 9       4  29.0  74.5
10       4  26.2  71.4
# … with 1,836 more rows
…
